\relax 
\catcode `:\active 
\catcode `;\active 
\catcode `!\active 
\catcode `?\active 
\select@language{french}
\@writefile{toc}{\select@language{french}}
\@writefile{lof}{\select@language{french}}
\@writefile{lot}{\select@language{french}}
\@writefile{toc}{\contentsline {section}{\numberline {1}Tests}{1}}
\@writefile{toc}{\contentsline {subsection}{\numberline {1.1}Division Tests}{1}}
\@writefile{toc}{\contentsline {subsection}{\numberline {1.2}LeftShift Tests}{1}}
\@writefile{toc}{\contentsline {subsection}{\numberline {1.3}Unary bitwise Tests}{1}}
\@writefile{toc}{\contentsline {subsection}{\numberline {1.4}Palindrome Tests}{2}}
\@writefile{toc}{\contentsline {section}{\numberline {2}Grammar changes}{2}}
