\relax 
\catcode `:\active 
\catcode `;\active 
\catcode `!\active 
\catcode `?\active 
\select@language{french}
\@writefile{toc}{\select@language{french}}
\@writefile{lof}{\select@language{french}}
\@writefile{lot}{\select@language{french}}
\@writefile{toc}{\contentsline {section}{\numberline {1}Lexical analysis}{1}}
\@writefile{toc}{\contentsline {subsection}{\numberline {1.1}Strings}{1}}
\@writefile{toc}{\contentsline {subsection}{\numberline {1.2}NFA}{1}}
\@writefile{toc}{\contentsline {subsection}{\numberline {1.3}DFA}{1}}
\@writefile{toc}{\contentsline {subsection}{\numberline {1.4}Minimising}{2}}
\@writefile{toc}{\contentsline {section}{\numberline {2}Parsing}{2}}
\@writefile{toc}{\contentsline {section}{\numberline {3}Report}{3}}
\@writefile{toc}{\contentsline {paragraph}{}{3}}
